Immune related gene — return_immune_genes • loonR
…
    Immune related gene

return_immune_genes(type = c("default", "checkpoint"))

    Value

    A tibble object

    Examples

loonR::return_immune_genes()
#> Collected from: 
#> https://www.cell.com/immunity/fulltext/S1074-7613(18)30121-3?_returnURL=https%3A%2F%2Flinkinghub.elsevier.com%2Fretrieve%2Fpii%2FS1074761318301213%3Fshowall%3Dtrue#supplementaryMaterial
#> # A tibble: 78 × 5
#>    HGNC.Symbol Super.Category Entrez.ID Symbol  Immune.Checkpoint
#>    <chr>       <chr>              <int> <chr>   <chr>            
#>  1 ADORA2A     Receptor             135 ADORA2A Inhibitory       
#>  2 ARG1        Other                383 ARG1    Inhibitory       
#>  3 BTLA        Receptor          151888 BTLA    Inhibitory       
#>  4 BTN3A1      Co-inhibitor       11119 BTN3A1  Stimulatory      
#>  5 BTN3A2      Co-inhibitor       11118 BTN3A2  Stimulatory      
#>  6 CCL5        Ligand              6352 CCL5    Stimulatory      
#>  7 CD27        Receptor             939 CD27    Stimulatory      
#>  8 CD274       Co-inhibitor       29126 CD274   Inhibitory       
#>  9 CD276       Co-inhibitor       80381 CD276   Inhibitory       
#> 10 CD28        Co-stimulator        940 CD28    Stimulatory      
#> # … with 68 more rows
…
